<?xml version="1.0" standalone="no"?>
<!DOCTYPE svg PUBLIC "-//W3C//DTD SVG 20010904//EN"
 "http://www.w3.org/TR/2001/REC-SVG-20010904/DTD/svg10.dtd">
<svg version="1.0" xmlns="http://www.w3.org/2000/svg"
 width="200.000000pt" height="200.000000pt" viewBox="0 0 200.000000 200.000000"
 preserveAspectRatio="xMidYMid meet">
<metadata>
Created by potrace 1.11, written by Peter Selinger 2001-2013
</metadata>
<g transform="translate(0.000000,200.000000) scale(0.100000,-0.100000)"
fill="#000000" stroke="none">
<path d="M1234 1895 c-4 -9 -1 -28 5 -43 7 -16 11 -66 9 -117 l-3 -90 -100
-17 c-55 -9 -112 -17 -127 -17 -28 -1 -28 -1 -28 68 0 62 -3 72 -25 89 -29 23
-94 37 -125 27 -21 -7 -29 -49 -11 -60 5 -3 18 -29 29 -58 38 -103 42 -93 -45
-101 -159 -14 -187 -32 -107 -67 47 -21 117 -22 180 -4 19 6 22 2 28 -42 11
-75 34 -149 52 -164 14 -11 18 -10 30 6 8 10 16 16 19 13 6 -5 25 -102 21
-106 -2 -1 -57 -13 -123 -25 -105 -20 -123 -21 -152 -9 -46 18 -115 12 -119
-10 -2 -11 3 -18 12 -18 23 0 44 -39 68 -121 32 -117 59 -159 99 -159 5 0 14
11 19 24 9 26 27 31 144 42 l69 7 -7 -58 c-4 -33 -8 -60 -9 -62 -2 -1 -43 -5
-93 -9 -94 -6 -154 -20 -154 -35 0 -4 15 -16 33 -26 24 -13 56 -17 124 -18
l92 0 -6 -40 c-3 -22 -8 -43 -12 -47 -3 -4 -103 -16 -221 -28 -254 -24 -270
-27 -270 -46 0 -19 87 -74 118 -74 13 0 60 9 105 21 100 25 239 50 245 44 10
-9 -30 -94 -68 -148 -52 -72 -140 -137 -275 -204 -130 -64 -142 -73 -95 -73
52 0 212 45 295 84 114 53 217 161 256 269 7 20 16 36 20 35 4 -2 57 -59 119
-128 183 -203 251 -269 289 -280 23 -6 89 -6 185 1 157 10 235 24 220 39 -5 5
-56 25 -114 45 -212 73 -423 190 -578 323 -52 45 -53 46 -30 55 13 5 118 6
248 2 124 -4 238 -7 253 -7 16 -1 36 7 45 15 15 16 15 19 -4 44 -30 41 -115
72 -194 72 -36 0 -141 -10 -235 -24 -93 -13 -171 -22 -173 -20 -2 2 -1 23 3
48 l7 44 126 16 c155 19 185 29 180 59 -2 17 -14 26 -48 36 -44 13 -106 9
-217 -14 l-33 -6 0 56 c0 31 3 56 8 56 83 2 356 21 360 25 3 3 0 11 -6 17 -7
7 -12 20 -12 30 0 18 56 80 105 114 29 21 30 22 12 42 -10 11 -56 39 -102 63
l-84 42 -73 -21 c-105 -30 -184 -37 -191 -18 -3 8 -24 29 -47 45 -22 16 -37
32 -32 35 5 3 63 11 128 17 65 7 121 13 122 15 2 1 -6 16 -19 33 -21 29 -22
34 -11 93 6 34 15 65 19 69 4 4 77 11 160 15 95 4 159 11 170 19 16 12 16 14
-1 40 -22 34 -89 65 -141 64 -22 0 -68 -6 -102 -13 -35 -7 -63 -11 -63 -7 0 3
10 39 21 79 22 71 22 73 3 93 -43 48 -158 78 -170 44z m1 -397 c-4 -35 -10
-67 -15 -71 -8 -9 -150 -36 -192 -37 -28 0 -28 0 -28 69 l0 69 42 7 c23 4 73
11 112 15 39 4 75 8 79 9 5 0 6 -27 2 -61z m184 -307 c16 -10 11 -115 -5 -131
-11 -11 -162 -40 -206 -40 -28 0 -28 0 -28 68 0 37 4 74 9 81 15 24 199 41
230 22z m-375 -112 l7 -76 -105 -9 -106 -9 -11 54 c-6 29 -7 57 -2 61 7 7 206
60 209 57 1 -1 5 -36 8 -78z"/>
<path d="M260 1706 c0 -21 185 -212 220 -226 40 -17 77 -6 95 30 31 61 10 113
-63 153 -85 46 -252 75 -252 43z"/>
<path d="M120 1296 c0 -20 145 -183 190 -212 51 -34 87 -34 117 0 47 55 18
133 -68 176 -80 41 -239 65 -239 36z"/>
<path d="M437 873 c-18 -32 -64 -114 -102 -183 -52 -93 -86 -141 -132 -186
-35 -33 -63 -68 -63 -77 0 -31 47 -147 74 -182 15 -20 38 -43 52 -51 36 -24
50 -6 64 79 17 107 73 323 124 483 25 78 46 149 46 158 0 34 -30 14 -63 -41z"/>
</g>
</svg>
